{
    "project": "enterprise", 
    "version": "master non-LTS (unsupported)", 
    "note": "Please note that <a href=\"/product/supported-versions/\">non-LTS releases are unsupported</a>, i.e. excluded from CFEngine Enterprise support contract, and we do not recommend installing them in production.", 
    "artifacts": {
        "Policy Server": [
            {
                "Title": "Debian 7", 
                "Arch": "x86_64", 
                "classexpr": "am_policy_hub.debian_7.64_bit", 
                "Published": true, 
                "URL": "http://buildcache.cfengine.com/packages/testing-pr/jenkins-master-nightly-pipeline-414/PACKAGES_HUB_x86_64_linux_debian_7/cfengine-nova-hub_3.16.0a.dc0e180cb~8751.debian7_amd64.deb", 
                "SHA256": "d28ed60755d5dfd2c030b9fb49f75bb7adbc92d1328da09e941563c8504e884c", 
                "package": "PACKAGES_HUB_x86_64_linux_debian_7"
            }, 
            {
                "Title": "Debian 8", 
                "Arch": "x86_64", 
                "classexpr": "am_policy_hub.debian_8.64_bit", 
                "Published": true, 
                "URL": "http://buildcache.cfengine.com/packages/testing-pr/jenkins-master-nightly-pipeline-414/PACKAGES_HUB_x86_64_linux_debian_8/cfengine-nova-hub_3.16.0a.dc0e180cb~8751.debian8_amd64.deb", 
                "SHA256": "f7fc9b179c8d0b2d499c6e4d9b7cfd223884aeb65551e8a2615ba45159c365a6", 
                "package": "PACKAGES_HUB_x86_64_linux_debian_8"
            }, 
            {
                "Title": "Debian 9", 
                "Arch": "x86_64", 
                "classexpr": "am_policy_hub.debian_9.64_bit", 
                "Published": true, 
                "URL": "http://buildcache.cfengine.com/packages/testing-pr/jenkins-master-nightly-pipeline-414/PACKAGES_HUB_x86_64_linux_debian_9/cfengine-nova-hub_3.16.0a.dc0e180cb~8751.debian9_amd64.deb", 
                "SHA256": "85c84c4f975e01c622fb4edd49c4daf22552bb3eb6c269f3644e5b01649705f7", 
                "package": "PACKAGES_HUB_x86_64_linux_debian_9"
            }, 
            {
                "Title": "Debian 10", 
                "Arch": "x86_64", 
                "classexpr": "am_policy_hub.debian_10.64_bit", 
                "Published": true, 
                "URL": "http://buildcache.cfengine.com/packages/testing-pr/jenkins-master-nightly-pipeline-414/PACKAGES_HUB_x86_64_linux_debian_10/cfengine-nova-hub_3.16.0a.dc0e180cb~8751.debian10_amd64.deb", 
                "SHA256": "118c1f6e6fe662b05a2ba501b17266f204d1d620d5c52987a52ee19e625a368e", 
                "package": "PACKAGES_HUB_x86_64_linux_debian_10"
            }, 
            {
                "Title": "Red Hat / CentOS 6", 
                "Arch": "x86_64", 
                "classexpr": "am_policy_hub.(redhat_6|centos_6).64_bit", 
                "Published": true, 
                "URL": "http://buildcache.cfengine.com/packages/testing-pr/jenkins-master-nightly-pipeline-414/PACKAGES_HUB_x86_64_linux_redhat_6/cfengine-nova-hub-3.16.0a.dc0e180cb-8745.el6.x86_64.rpm", 
                "SHA256": "0b52b699c9ff59ea084b5b2ccb65c0781b56f0d86092abbe6272771b00645512", 
                "package": "PACKAGES_HUB_x86_64_linux_redhat_6"
            }, 
            {
                "Title": "Ubuntu 14", 
                "Arch": "x86_64", 
                "classexpr": "am_policy_hub.ubuntu_14.64_bit", 
                "Published": true, 
                "URL": "http://buildcache.cfengine.com/packages/testing-pr/jenkins-master-nightly-pipeline-414/PACKAGES_HUB_x86_64_linux_ubuntu_14/cfengine-nova-hub_3.16.0a.dc0e180cb~8751.ubuntu14_amd64.deb", 
                "SHA256": "e32a2227dca3a29aa357a12bbc4a9981087692ae8bf60d69533db413950fd966", 
                "package": "PACKAGES_HUB_x86_64_linux_ubuntu_14"
            }, 
            {
                "Title": "Ubuntu 16", 
                "Arch": "x86_64", 
                "classexpr": "am_policy_hub.ubuntu_16.64_bit", 
                "Published": true, 
                "URL": "http://buildcache.cfengine.com/packages/testing-pr/jenkins-master-nightly-pipeline-414/PACKAGES_HUB_x86_64_linux_ubuntu_16/cfengine-nova-hub_3.16.0a.dc0e180cb~8745.ubuntu16_amd64.deb", 
                "SHA256": "e6b84c296d5f97eb2106dfb5c4382eab721811086ba33293a2dfe3743f881c81", 
                "package": "PACKAGES_HUB_x86_64_linux_ubuntu_16"
            }, 
            {
                "Title": "Ubuntu 18", 
                "Arch": "x86_64", 
                "classexpr": "am_policy_hub.ubuntu_18.64_bit", 
                "Published": true, 
                "URL": "http://buildcache.cfengine.com/packages/testing-pr/jenkins-master-nightly-pipeline-414/PACKAGES_HUB_x86_64_linux_ubuntu_18/cfengine-nova-hub_3.16.0a.dc0e180cb~8751.ubuntu18_amd64.deb", 
                "SHA256": "475a06995f88a23b647be09683e2bee2853bbdfda0197d5dfb8261110b4454bf", 
                "package": "PACKAGES_HUB_x86_64_linux_ubuntu_18"
            }
        ], 
        "Hosts (Clients)": [
            {
                "Title": "Debian 7", 
                "Arch": "x86_64", 
                "classexpr": "!am_policy_hub.debian_7.64_bit", 
                "Published": true, 
                "URL": "http://buildcache.cfengine.com/packages/testing-pr/jenkins-master-nightly-pipeline-414/PACKAGES_x86_64_linux_debian_7/cfengine-nova_3.16.0a.dc0e180cb~8751.debian7_amd64.deb", 
                "SHA256": "1038ee81b55480fb04751a76e79d7a1f224f3715b22fde3b8e4e4a2efe7a9f52", 
                "package": "PACKAGES_x86_64_linux_debian_7"
            }, 
            {
                "Title": "Debian 8", 
                "Arch": "x86_64", 
                "classexpr": "!am_policy_hub.debian_8.64_bit", 
                "Published": true, 
                "URL": "http://buildcache.cfengine.com/packages/testing-pr/jenkins-master-nightly-pipeline-414/PACKAGES_x86_64_linux_debian_8/cfengine-nova_3.16.0a.dc0e180cb~8751.debian8_amd64.deb", 
                "SHA256": "cf36219ff24fff2e7d5ea0a12fc20b701d118e8620c28c2d795b8e9b81ae27ff", 
                "package": "PACKAGES_x86_64_linux_debian_8"
            }, 
            {
                "Title": "Debian 9", 
                "Arch": "x86_64", 
                "classexpr": "!am_policy_hub.debian_9.64_bit", 
                "Published": true, 
                "URL": "http://buildcache.cfengine.com/packages/testing-pr/jenkins-master-nightly-pipeline-414/PACKAGES_x86_64_linux_debian_9/cfengine-nova_3.16.0a.dc0e180cb~8751.debian9_amd64.deb", 
                "SHA256": "90c7bcd409c272f44ee3edaf2e56eace983bb6ae67feec87fea167dd8fda9555", 
                "package": "PACKAGES_x86_64_linux_debian_9"
            }, 
            {
                "Title": "Debian 10", 
                "Arch": "x86_64", 
                "classexpr": "!am_policy_hub.debian_10.64_bit", 
                "Published": true, 
                "URL": "http://buildcache.cfengine.com/packages/testing-pr/jenkins-master-nightly-pipeline-414/PACKAGES_x86_64_linux_debian_10/cfengine-nova_3.16.0a.dc0e180cb~8751.debian10_amd64.deb", 
                "SHA256": "191d03a409a25ec37b0c4251085c77f8409628a2293f3d96a98d191763f75529", 
                "package": "PACKAGES_x86_64_linux_debian_10"
            }, 
            {
                "Title": "Ubuntu 14.04", 
                "Arch": "x86_64", 
                "classexpr": "!am_policy_hub.ubuntu_14.64_bit", 
                "Published": true, 
                "URL": "http://buildcache.cfengine.com/packages/testing-pr/jenkins-master-nightly-pipeline-414/PACKAGES_x86_64_linux_ubuntu_14/cfengine-nova_3.16.0a.dc0e180cb~8751.ubuntu14_amd64.deb", 
                "SHA256": "b62d43724670331205c638f0f59e931b08f077deecf2a9162c5ad3245d13f038", 
                "package": "PACKAGES_x86_64_linux_ubuntu_14"
            }, 
            {
                "Title": "Ubuntu 16.04", 
                "Arch": "x86_64", 
                "classexpr": "!am_policy_hub.ubuntu_16.64_bit", 
                "Published": true, 
                "URL": "http://buildcache.cfengine.com/packages/testing-pr/jenkins-master-nightly-pipeline-414/PACKAGES_x86_64_linux_ubuntu_16/cfengine-nova_3.16.0a.dc0e180cb~8751.ubuntu16_amd64.deb", 
                "SHA256": "f93adec66288cd2f54083ed64058c7b1783da931ae881fa000630957969a7f01", 
                "package": "PACKAGES_x86_64_linux_ubuntu_16"
            }, 
            {
                "Title": "Ubuntu 18.04", 
                "Arch": "x86_64", 
                "classexpr": "!am_policy_hub.ubuntu_18.64_bit", 
                "Published": true, 
                "URL": "http://buildcache.cfengine.com/packages/testing-pr/jenkins-master-nightly-pipeline-414/PACKAGES_x86_64_linux_ubuntu_18/cfengine-nova_3.16.0a.dc0e180cb~8751.ubuntu18_amd64.deb", 
                "SHA256": "0eea06e1542dcf953f1fef778cca27fd13bd553084c01a40233c8f659b3f5e9a", 
                "package": "PACKAGES_x86_64_linux_ubuntu_18"
            }, 
            {
                "Title": "Red Hat / CentOS 5, 6, 7 & SLES 11", 
                "Arch": "x86", 
                "classexpr": "!am_policy_hub.(redhat|centos|suse|sles).32_bit", 
                "Published": true, 
                "URL": "http://buildcache.cfengine.com/packages/testing-pr/jenkins-master-nightly-pipeline-414/PACKAGES_i386_linux_redhat_5/cfengine-nova-3.16.0a.dc0e180cb-8751.el5.centos.i386.rpm", 
                "SHA256": "b28278ddea6551ac6e1438821511f27c15d99ea4a4ee351f631adb5d757d3157", 
                "package": "PACKAGES_i386_linux_redhat_5"
            }, 
            {
                "Title": "Red Hat / CentOS 5 & SLES 11", 
                "Arch": "x86_64", 
                "classexpr": "!am_policy_hub.(redhat_5|centos_5|suse_11|sles_11).64_bit", 
                "Published": true, 
                "URL": "http://buildcache.cfengine.com/packages/testing-pr/jenkins-master-nightly-pipeline-414/PACKAGES_x86_64_linux_redhat_5/cfengine-nova-3.16.0a.dc0e180cb-8751.el5.centos.x86_64.rpm", 
                "SHA256": "6a4d3d4b29203d7b2c2abac2df161b774e1325234f62f4fa21518f533826a692", 
                "package": "PACKAGES_x86_64_linux_redhat_5"
            }, 
            {
                "Title": "Red Hat / CentOS 6 & SLES 12, 15", 
                "Arch": "x86_64", 
                "classexpr": "!am_policy_hub.(redhat_6|centos_6|suse|sles).!(suse_11|sles_11).64_bit", 
                "Published": true, 
                "URL": "http://buildcache.cfengine.com/packages/testing-pr/jenkins-master-nightly-pipeline-414/PACKAGES_x86_64_linux_redhat_6/cfengine-nova-3.16.0a.dc0e180cb-8745.el6.x86_64.rpm", 
                "SHA256": "a3ae0d3a835c09102e5513f4c8c2f2cae0f9a66594c8f46b95f9a207fadadd84", 
                "Footnote": 1, 
                "package": "PACKAGES_x86_64_linux_redhat_6"
            }, 
            {
                "Title": "Windows Server 2008", 
                "Arch": "x86", 
                "classexpr": "!am_policy_hub.windows.32_bit", 
                "Published": true, 
                "URL": "http://buildcache.cfengine.com/packages/testing-pr/jenkins-master-nightly-pipeline-414/PACKAGES_i386_mingw/cfengine-nova-3.16.0a-8745-i686.msi", 
                "SHA256": "e25d90c5ba1623301a5a6feb4066db8fa97eef611f202f78a2905c241443950d", 
                "package": "PACKAGES_i386_mingw"
            }, 
            {
                "Title": "Windows Server 2008, 2012", 
                "Arch": "x86_64", 
                "classexpr": "!am_policy_hub.windows.64_bit", 
                "Published": true, 
                "URL": "http://buildcache.cfengine.com/packages/testing-pr/jenkins-master-nightly-pipeline-414/PACKAGES_x86_64_mingw/cfengine-nova-3.16.0a-8751-x86_64.msi", 
                "SHA256": "18b018fc4383b51f105ba8bf5c332129196c2d6b644b27469c204bae9dc3dc33", 
                "package": "PACKAGES_x86_64_mingw"
            }, 
            {
                "Title": "AIX 6 (rpm)", 
                "Arch": "PowerPC", 
                "classexpr": "!am_policy_hub.aix_5|aix_6", 
                "Published": true, 
                "URL": "http://buildcache.cfengine.com/packages/testing-pr/jenkins-master-nightly-pipeline-414/PACKAGES_ppc64_aix_53/cfengine-nova-3.16.0a.dc0e180cb-8750.aix5.3.ppc.rpm", 
                "SHA256": "984c687ecf323da85e88229987da19228bde6701ebea0d70881f5b6dd7d81f2d", 
                "package": "PACKAGES_ppc64_aix_53"
            }, 
            {
                "Title": "AIX 6 (bff)", 
                "Arch": "PowerPC", 
                "classexpr": "!am_policy_hub.aix_5|aix_6", 
                "Published": true, 
                "URL": "http://buildcache.cfengine.com/packages/testing-pr/jenkins-master-nightly-pipeline-414/PACKAGES_ppc64_aix_53/cfengine.cfengine-nova-3.16.88.1808.bff", 
                "SHA256": "90992ae4d111e3a1de637ec90e729c45f69674e56b72d9e0356edd65a3d1cb0f", 
                "package": "PACKAGES_ppc64_aix_53"
            }, 
            {
                "Title": "AIX 7.1 TL5, 7.2 (rpm)", 
                "Arch": "PowerPC", 
                "classexpr": "!am_policy_hub.aix_7", 
                "Published": true, 
                "URL": "http://buildcache.cfengine.com/packages/testing-pr/jenkins-master-nightly-pipeline-414/PACKAGES_ppc64_aix_71/cfengine-nova-3.16.0a.dc0e180cb-8750.aix7.1.ppc.rpm", 
                "SHA256": "edc03ac72c848b6d08466cd48e19608c0257fa5ee0f1fa8eb9737a8366932f42", 
                "package": "PACKAGES_ppc64_aix_71"
            }, 
            {
                "Title": "AIX 7.1 TL5, 7.2 (bff)", 
                "Arch": "PowerPC", 
                "classexpr": "!am_policy_hub.aix_7", 
                "Published": true, 
                "URL": "http://buildcache.cfengine.com/packages/testing-pr/jenkins-master-nightly-pipeline-414/PACKAGES_ppc64_aix_71/cfengine.cfengine-nova-3.16.88.1808.bff", 
                "SHA256": "4aeddf90235c0b10214098a654333949be497a3e987597e317a42dda255bf686", 
                "package": "PACKAGES_ppc64_aix_71"
            }
        ], 
        "Additional Assets": [
            {
                "Title": "Masterfiles ready-to-install tarball", 
                "Arch": "no arch", 
                "classexpr": "!any", 
                "Published": true, 
                "URL": "http://buildcache.cfengine.com/packages/testing-pr/jenkins-master-nightly-pipeline-414/PACKAGES_x86_64_linux_redhat_6/tarballs/cfengine-masterfiles-3.16.0a.b0b3b4e22-1.pkg.tar.gz", 
                "SHA256": "0fc53845b48718dfc0bd6b7802136d8855fec3f3270110d7744a0559f40c0c60"
            }, 
            {
                "Title": "Linux binary tarball (unsupported)", 
                "Arch": "x86", 
                "classexpr": "!any", 
                "Published": true, 
                "URL": "http://buildcache.cfengine.com/packages/testing-pr/jenkins-master-nightly-pipeline-414/PACKAGES_i386_linux_redhat_5/cfengine-nova-3.16.0a.dc0e180cb-8751.i386.pkg.tar.gz", 
                "SHA256": "acfed9f7df6f6ed07c949f2fd6bf01299052b07c15a8318cb7b6ecdf6be03c99", 
                "Footnote": 2, 
                "Instructions": "https://docs.cfengine.com/docs/master/guide-installation-and-configuration-general-installation-installation-enterprise-generic-tarball.html"
            }, 
            {
                "Title": "Linux binary tarball (unsupported)", 
                "Arch": "x86_64", 
                "classexpr": "!any", 
                "Published": true, 
                "URL": "http://buildcache.cfengine.com/packages/testing-pr/jenkins-master-nightly-pipeline-414/PACKAGES_x86_64_linux_redhat_6/cfengine-nova-3.16.0a.dc0e180cb-8745.x86_64.pkg.tar.gz", 
                "SHA256": "f125acaf500ee083637732e445c97372f6e65c19eab7975432a665786dcb71ab", 
                "Footnote": 2, 
                "Instructions": "https://docs.cfengine.com/docs/master/guide-installation-and-configuration-general-installation-installation-enterprise-generic-tarball.html"
            }
        ]
    }, 
    "footnotes": [
        "Packages for Red Hat / CentOS 6 and later provide stability and performance enhancements for these platforms, but these platforms can also use the generic 64-bit packages.", 
        "Tarball containing compiled CFEngine host (client) binaries that runs on most Linux systems but are not optimized for specific library or platform features. Appropriate for testing purposes. Not supported under the CFEngine support contract."
    ]
}